{
  "auth#create": [
    {
      "verb": "POST",
      "path": "/api/v1/auth",
      "versions": [
        "1.0"
      ],
      "query": null,
      "request_data": "format=json&user[email]=emerson.jenkins%40roobwalter.org&user[password]=password123",
      "response_data": {
        "success": true,
        "status": 201,
        "access_token": "5f19bf84fca713a9218079ec0e758e01",
        "user": {
          "id": 85,
          "email": "emerson.jenkins@roobwalter.org",
          "first_name": "Angeline",
          "last_name": "Mosciski",
          "zip": "71547-4996",
          "county": "Nevada",
          "phone": "143.365.6757",
          "avatar": null
        }
      },
      "code": 201,
      "show_in_doc": 1,
      "recorded": true
    },
    {
      "verb": "POST",
      "path": "/api/v1/auth",
      "versions": [
        "1.0"
      ],
      "query": null,
      "request_data": "format=json&user[email]=karlie%40mcclure.name&user[password]=badpassword",
      "response_data": {
        "success": false,
        "status": 401,
        "errors": {
          "message": "Invalid Authentication Request"
        }
      },
      "code": 401,
      "show_in_doc": 1,
      "recorded": true
    }
  ],
  "auth#destroy": [
    {
      "verb": "DELETE",
      "path": "/api/v1/auth",
      "versions": [
        "1.0"
      ],
      "query": null,
      "request_data": "format=json",
      "response_data": {
        "success": true,
        "status": 200
      },
      "code": 200,
      "show_in_doc": 1,
      "recorded": true
    },
    {
      "verb": "DELETE",
      "path": "/api/v1/auth",
      "versions": [
        "1.0"
      ],
      "query": null,
      "request_data": "format=json",
      "response_data": {
        "success": true,
        "status": 200
      },
      "code": 200,
      "show_in_doc": 1,
      "recorded": true
    }
  ],
  "events#create": [
    {
      "verb": "POST",
      "path": "/api/v1/events",
      "versions": [
        "1.0"
      ],
      "query": null,
      "request_data": "format=json&regionOrDept=IT&type=Training&eventName=testname&eventLocation=testplace&staffResponsible=tester&notes=testnotes&eventID=10194&eventStartDate=1%2F28%2F2016&eventStartTime=12%3A15&eventStartAMPM=pm",
      "response_data": {
        "success": true,
        "status": 201,
        "event": {
          "seiu_id": 10194,
          "region": "IT",
          "name": "testname",
          "location": "testplace",
          "start_time": "2016-01-28T12:15:00.000Z",
          "type": "Training",
          "staff": "tester",
          "staff_only": false,
          "notes": "testnotes",
          "recurring": false
        }
      },
      "code": 201,
      "show_in_doc": 1,
      "recorded": true
    },
    {
      "verb": "POST",
      "path": "/api/v1/events",
      "versions": [
        "1.0"
      ],
      "query": null,
      "request_data": "format=json&regionOrDept=IT&type=Training&eventName=testname&eventLocation=testplace&staffResponsible=tester&notes=testnotes&eventID=123123&eventStartDate=1%2F28%2F2016&eventStartTime=12%3A15&eventStartAMPM=pm",
      "response_data": {
        "success": false,
        "status": 400,
        "errors": {
          "seiu_id": [
            "has already been taken"
          ]
        }
      },
      "code": 400,
      "show_in_doc": 1,
      "recorded": true
    }
  ],
  "events#destroy": [
    {
      "verb": "DELETE",
      "path": "/api/v1/events/16012",
      "versions": [
        "1.0"
      ],
      "query": null,
      "request_data": "format=json",
      "response_data": null,
      "code": 204,
      "show_in_doc": 1,
      "recorded": true
    }
  ],
  "events#index": [
    {
      "verb": "GET",
      "path": "/api/v1/events",
      "versions": [
        "1.0"
      ],
      "query": "format=json",
      "request_data": null,
      "response_data": {
        "events": [

        ]
      },
      "code": 200,
      "show_in_doc": 1,
      "recorded": true
    },
    {
      "verb": "GET",
      "path": "/api/v1/events",
      "versions": [
        "1.0"
      ],
      "query": "format=json",
      "request_data": null,
      "response_data": {
        "success": false,
        "status": 401
      },
      "code": 401,
      "show_in_doc": 1,
      "recorded": true
    }
  ],
  "events#update": [
    {
      "verb": "PATCH",
      "path": "/api/v1/events/61669",
      "versions": [
        "1.0"
      ],
      "query": null,
      "request_data": "format=json&eventName=Updated+event",
      "response_data": {
        "success": true,
        "status": 200,
        "event": {
          "seiu_id": 61669,
          "region": "Michigan",
          "name": "Updated event",
          "location": "3404 Royal Loop",
          "start_time": "2016-01-13T11:43:11.048Z",
          "type": "[\"omnis\"]",
          "staff": null,
          "staff_only": false,
          "notes": null,
          "recurring": false
        }
      },
      "code": 200,
      "show_in_doc": 1,
      "recorded": true
    },
    {
      "verb": "PATCH",
      "path": "/api/v1/events/222222+",
      "versions": [
        "1.0"
      ],
      "query": null,
      "request_data": "format=json",
      "response_data": null,
      "code": 204,
      "show_in_doc": 1,
      "recorded": true
    }
  ],
  "users#create": [
    {
      "verb": "POST",
      "path": "/api/v1/users",
      "versions": [
        "1.0"
      ],
      "query": null,
      "request_data": "format=json&user[first_name]=Test&user[last_name]=User&user[email]=test%40test.com&user[password]=password123&user[zip]=58517&user[county]=California&user[phone]=%28186%29285-7925",
      "response_data": {
        "success": true,
        "status": 201,
        "access_token": "042c8f59627cd61a5522ffc03816e466",
        "user": {
          "id": 92,
          "email": "test@test.com",
          "first_name": "Test",
          "last_name": "User",
          "zip": "58517",
          "county": "California",
          "phone": "(186)285-7925",
          "avatar": null,
          "verified": false
        }
      },
      "code": 201,
      "show_in_doc": 1,
      "recorded": true
    },
    {
      "verb": "POST",
      "path": "/api/v1/users",
      "versions": [
        "1.0"
      ],
      "query": null,
      "request_data": "format=json&user[email]=bademailformat&user[password]=password123&user[zip]=58517&user[county]=California&user[phone]=%28186%29285-7925",
      "response_data": {
        "success": false,
        "status": 422,
        "errors": {
          "first_name": [
            "can't be blank"
          ],
          "last_name": [
            "can't be blank"
          ],
          "email": [
            "is invalid"
          ]
        }
      },
      "code": 422,
      "show_in_doc": 1,
      "recorded": true
    }
  ],
  "users#destroy": [
    {
      "verb": "DELETE",
      "path": "/api/v1/profile",
      "versions": [
        "1.0"
      ],
      "query": null,
      "request_data": "format=json",
      "response_data": null,
      "code": 204,
      "show_in_doc": 1,
      "recorded": true
    }
  ],
  "users#reset_password": [
    {
      "verb": "POST",
      "path": "/api/v1/users/reset_password",
      "versions": [

      ],
      "query": null,
      "request_data": "format=json&user[email]=test1%40test.com",
      "response_data": {
        "success": true,
        "status": 200
      },
      "code": 200,
      "show_in_doc": 1,
      "recorded": true
    }
  ],
  "users#show": [
    {
      "verb": "GET",
      "path": "/api/v1/profile",
      "versions": [
        "1.0"
      ],
      "query": "format=json",
      "request_data": null,
      "response_data": {
        "success": true,
        "status": 201,
        "user": {
          "id": 90,
          "email": "katrina@hilllanderson.co",
          "first_name": "Cindy",
          "last_name": "Terry",
          "verified": false,
          "zip": "98065",
          "county": "Texas",
          "phone": "915-237-0185",
          "avatar": null
        }
      },
      "code": 200,
      "show_in_doc": 1,
      "recorded": true
    },
    {
      "verb": "GET",
      "path": "/api/v1/profile",
      "versions": [
        "1.0"
      ],
      "query": "format=json",
      "request_data": null,
      "response_data": {
        "success": false,
        "status": 401
      },
      "code": 401,
      "show_in_doc": 1,
      "recorded": true
    }
  ],
  "users#update": [
    {
      "verb": "PATCH",
      "path": "/api/v1/profile",
      "versions": [
        "1.0"
      ],
      "query": null,
      "request_data": "format=json&user[email]=test%40test.com&user[password]=password123&user[zip]=58517&user[county]=California&user[phone]=%28186%29285-7925",
      "response_data": {
        "success": true,
        "status": 201,
        "user": {
          "id": 93,
          "email": "test@test.com",
          "first_name": "Kristian",
          "last_name": "West",
          "verified": false,
          "zip": "58517",
          "county": "California",
          "phone": "(186)285-7925",
          "avatar": null
        }
      },
      "code": 200,
      "show_in_doc": 1,
      "recorded": true
    },
    {
      "verb": "PATCH",
      "path": "/api/v1/profile",
      "versions": [
        "1.0"
      ],
      "query": null,
      "request_data": "format=json&user[email]=test%40test.com&user[password]=password123&user[zip]=58517&user[county]=California&user[phone]=%28186%29285-7925",
      "response_data": {
        "success": false,
        "status": 422,
        "errors": {
          "email": [
            "has already been taken"
          ]
        }
      },
      "code": 422,
      "show_in_doc": 1,
      "recorded": true
    }
  ],
  "users#verify_password_token": [
    {
      "verb": "POST",
      "path": "/api/v1/users/verify_password_token",
      "versions": [

      ],
      "query": null,
      "request_data": "format=json&user[reset_password_token]=123",
      "response_data": {
        "success": true,
        "status": 201,
        "access_token": "de4c3b6459fdf75c4a52f41bb8c69f4b",
        "user": {
          "id": 98,
          "email": "zoey.weber@johnson.co",
          "first_name": "Garnett",
          "last_name": "Schimmel",
          "zip": "64562",
          "county": "Idaho",
          "phone": "(600) 879-7918",
          "avatar": null
        }
      },
      "code": 200,
      "show_in_doc": 1,
      "recorded": true
    }
  ]
}